{
	"format_version": "1.10.0",
	"geometry.irongolem": {
		"texturewidth": 128,
		"textureheight": 128,
		"visible_bounds_width": 2,
		"visible_bounds_height": 3,
		"visible_bounds_offset": [0, 1.5, 0],
		"bones": [
			{
				"name": "body",
				"pivot": [0, 31, 0],
				"cubes": [
					{"origin": [-9, 21, -6], "size": [18, 12, 11], "uv": [0, 0]},
					{"origin": [-4.5, 16, -3], "size": [9, 5, 6], "uv": [44, 61], "inflate": 0.5}
				]
			},
			{
				"name": "head",
				"pivot": [0, 31, -1],
				"cubes": [
					{"origin": [-4, 33, -4.5], "size": [8, 10, 8], "uv": [0, 31]},
					{"origin": [-8, 42, -1.5], "size": [2, 4, 2], "uv": [24, 82]},
					{"origin": [6, 42, -1.5], "size": [2, 4, 2], "uv": [32, 82]},
					{"origin": [4, 40, -1.5], "size": [4, 2, 2], "uv": [0, 82]},
					{"origin": [-8, 40, -1.5], "size": [4, 2, 2], "uv": [12, 82]}
				]
			},
			{
				"name": "arm0",
				"pivot": [-4, 30.5, 0],
				"cubes": [
					{"origin": [-13, 9.5, -3], "size": [4, 24, 6], "uv": [32, 31]}
				]
			},
			{
				"name": "arm1",
				"pivot": [4, 30.33333, 0.5],
				"cubes": [
					{"origin": [9, 8.5, -3], "size": [4, 25, 6], "uv": [58, 0]},
					{"origin": [10, 10.5, -7], "size": [2, 1, 11], "uv": [58, 0]},
					{"origin": [7, 8.5, -11], "size": [8, 5, 4], "uv": [58, 0]}
				]
			},
			{
				"name": "leg0",
				"pivot": [-4, 13, 0],
				"cubes": [
					{"origin": [-7.5, 0, -3], "size": [6, 16, 5], "uv": [22, 61]}
				]
			},
			{
				"name": "leg1",
				"pivot": [5, 13, 0],
				"mirror": true,
				"cubes": [
					{"origin": [1.5, 0, -3], "size": [6, 16, 5], "uv": [0, 61], "mirror": false}
				]
			}
		]
	},
	"geometry.pmsmash.rookie": {
		"texturewidth": 128,
		"textureheight": 128,
		"visible_bounds_width": 2,
		"visible_bounds_height": 3,
		"visible_bounds_offset": [0, 1.5, 0],
		"bones": [
			{
				"name": "body",
				"pivot": [0, 31, 0],
				"cubes": [
					{"origin": [-9, 21, -6], "size": [18, 12, 11], "uv": [0, 0]},
					{"origin": [-4.5, 16, -3], "size": [9, 5, 6], "uv": [44, 61], "inflate": 0.5}
				]
			},
			{
				"name": "head",
				"pivot": [0, 31, -1],
				"cubes": [
					{"origin": [-4, 33, -4.5], "size": [8, 10, 8], "uv": [0, 31]},
					{"origin": [-8, 42, -1.5], "size": [2, 4, 2], "uv": [24, 82]},
					{"origin": [6, 42, -1.5], "size": [2, 4, 2], "uv": [32, 82]},
					{"origin": [4, 40, -1.5], "size": [4, 2, 2], "uv": [0, 82]},
					{"origin": [-8, 40, -1.5], "size": [4, 2, 2], "uv": [12, 82]}
				]
			},
			{
				"name": "rightArm",
				"pivot": [-5, 30.5, 0],
				"cubes": [
					{"origin": [-13, 9.5, -3], "size": [4, 24, 6], "uv": [32, 31]}
				]
			},
			{
				"name": "leftArm",
				"pivot": [5, 30.33333, 0.5],
				"cubes": [
					{"origin": [9, 8.5, -3], "size": [4, 25, 6], "uv": [58, 0]},
					{"origin": [10, 10.5, -7], "size": [2, 1, 11], "uv": [58, 0]},
					{"origin": [7, 8.5, -11], "size": [8, 5, 4], "uv": [58, 0]}
				]
			},
			{
				"name": "rightLeg",
				"pivot": [-4, 13, 0],
				"cubes": [
					{"origin": [-7.5, 0, -3], "size": [6, 16, 5], "uv": [22, 61]}
				]
			},
			{
				"name": "leftLeg",
				"pivot": [5, 13, 0],
				"mirror": true,
				"cubes": [
					{"origin": [1.5, 0, -3], "size": [6, 16, 5], "uv": [0, 61], "mirror": false}
				]
			}
		]
	}
}